<?xml version="1.0" standalone="no"?>
<!DOCTYPE svg PUBLIC "-//W3C//DTD SVG 20010904//EN"
 "http://www.w3.org/TR/2001/REC-SVG-20010904/DTD/svg10.dtd">
<svg version="1.0" xmlns="http://www.w3.org/2000/svg"
 width="50px" height="50px" viewBox="0 0 640.000000 566.000000"
 preserveAspectRatio="xMidYMid meet">
<metadata>
Created by potrace 1.15, written by Peter Selinger 2001-2017
</metadata>
<g transform="translate(0.000000,566.000000) scale(0.100000,-0.100000)"
fill="#000000" stroke="none">
<path d="M259 5419 c-15 -15 -19 -29 -16 -48 3 -14 203 -368 445 -786 241
-418 607 -1052 814 -1410 206 -357 450 -780 542 -940 92 -159 175 -296 184
-303 9 -7 31 -12 47 -10 37 4 15 -31 368 582 l281 490 0 67 0 67 -125 208
c-69 115 -278 461 -464 769 -186 308 -430 713 -542 900 -113 187 -215 351
-226 364 -12 13 -44 34 -72 47 l-50 24 -582 0 c-579 0 -583 0 -604 -21z"/>
<path d="M2080 5420 c-11 -11 -20 -28 -20 -38 0 -9 57 -112 127 -227 322 -534
717 -1188 826 -1370 66 -110 129 -210 140 -222 26 -29 68 -29 94 0 17 19 320
542 900 1551 79 137 143 258 143 268 0 10 -9 27 -20 38 -20 20 -33 20 -1095
20 -1062 0 -1075 0 -1095 -20z"/>
<path d="M4854 5420 c-22 -11 -54 -35 -71 -53 -17 -17 -450 -761 -963 -1652
-513 -891 -999 -1735 -1080 -1875 -81 -140 -157 -274 -168 -297 -29 -55 -36
-110 -23 -161 11 -38 585 -1045 619 -1084 21 -25 65 -22 89 5 40 44 2918 5042
2921 5073 3 24 -2 35 -19 48 -21 14 -88 16 -644 16 -601 0 -621 -1 -661 -20z"/>
</g>
</svg>
